Cervelló Club;Cervelló;Cristian;2;Carles;Cristian
Montmaneu Club;Montmaneu;Cristian;1;Manolito
Castellfollit de Riubregós Club;Castellfollit de Riubregós;Ricard;0
La Quar Club;La Quar;Garcia;0
Vilanova del Camí Club;Vilanova del Camí;Joselito;3;Antoni;Pepe;Antoni
L\'Esquirol Club;L\'Esquirol;Ricard;0
Sant Cugat Sesgarrigues Club;Sant Cugat Sesgarrigues;Manolito;1;Pedrito
Castellcir Club;Castellcir;Martin;2;Juanito;Martin
Sant Mateu de Bages Club;Sant Mateu de Bages;Morata;2;Pepe;Cristian
Tona Club;Tona;Pepe;3;Cristian;Antoni;Garcia
El Pla del Penedès Club;El Pla del Penedès;Albert;2;Antoni;Joselito
Cabrera de Mar Club;Cabrera de Mar;Albert;1;Josep
Viver i Serrateix Club;Viver i Serrateix;Albert;3;Albert;Joselito;Ricard
Premià de Dalt Club;Premià de Dalt;Ricard;0
Sant Esteve Sesrovires Club;Sant Esteve Sesrovires;Juanito;3;Pedrito;Pepe;Ricard
Sant Joan de Vilatorrada Club;Sant Joan de Vilatorrada;Pedrito;2;Cristian;Pepe
Begues Club;Begues;Antoni;3;Jan;Albert;Jan
Alella Club;Alella;Antoni;3;Juanito;Pepe;Josep
Bagà Club;Bagà;Martin;1;Antoni
Folgueroles Club;Folgueroles;Antoni;0
Canyelles Club;Canyelles;Albert;0
Gelida Club;Gelida;Ricard;1;Carles
Sant Martí de Centelles Club;Sant Martí de Centelles;Garcia;1;Josep
Sant Agustí de Lluçanès Club;Sant Agustí de Lluçanès;Mario;2;Pedrito;Albert
Òrrius Club;Òrrius;Pepe;3;Pedrito;Ricard;Cristian
Premià de Mar Club;Premià de Mar;Ricard;3;Jan;Garcia;Garcia
Saldes Club;Saldes;Pedrito;2;Antoni;Antoni
Sant Bartomeu del Grau Club;Sant Bartomeu del Grau;Joselito;1;Garcia
Montgat Club;Montgat;Joselito;1;Cristian
Santa Maria d\'Oló Club;Santa Maria d\'Oló;Josep;3;Antoni;Cristian;Joselito
Collbató Club;Collbató;Mario;3;Manolito;Jan;Jan
Castellnou de Bages Club;Castellnou de Bages;Pepe;0
Castellbisbal Club;Castellbisbal;Morata;1;Ricard
Teià Club;Teià;Juanito;1;Josep
Ullastrell Club;Ullastrell;Pepe;3;Mario;Garcia;Mario
Lluçà Club;Lluçà;Morata;2;Cristian;Manolito
Roda de Ter Club;Roda de Ter;Cristian;1;Albert
Sant Pere de Vilamajor Club;Sant Pere de Vilamajor;Josep;3;Pepe;Josep;Martin
Esplugues de Llobregat Club;Esplugues de Llobregat;Pepe;2;Pepe;Joselito
Òdena Club;Òdena;Martin;0
Sant Pere de Riudebitlles Club;Sant Pere de Riudebitlles;Ricard;1;Antoni
Sant Feliu de Llobregat Club;Sant Feliu de Llobregat;Joselito;0
Olesa de Montserrat Club;Olesa de Montserrat;Manolito;0
Vallirana Club;Vallirana;Albert;0
Pujalt Club;Pujalt;Juanito;1;Jan
Rubió Club;Rubió;Ricard;3;Carles;Josep;Jan
Granollers Club;Granollers;Jan;0
Sant Celoni Club;Sant Celoni;Ricard;0
Marganell Club;Marganell;Joselito;3;Carles;Martin;Cristian
Sant Llorenç Savall Club;Sant Llorenç Savall;Juanito;0
Granera Club;Granera;Pepe;0
Fogars de Montclús Club;Fogars de Montclús;Mario;2;Antoni;Albert
Gallifa Club;Gallifa;Garcia;0
Tavèrnoles Club;Tavèrnoles;Garcia;3;Josep;Morata;Antoni
Vallgorguina Club;Vallgorguina;Albert;3;Joselito;Cristian;Manolito
Òrrius Club;Òrrius;Pepe;1;Morata
Sobremunt Club;Sobremunt;Pepe;1;Albert
Vallromanes Club;Vallromanes;Ricard;2;Pepe;Manolito
Montmajor Club;Montmajor;Carles;3;Pepe;Garcia;Mario
Calders Club;Calders;Cristian;0
La Pobla de Claramunt Club;La Pobla de Claramunt;Garcia;3;Carles;Pedrito;Ricard
Taradell Club;Taradell;Morata;1;Albert
Castell de l\'Areny Club;Castell de l\'Areny;Carles;0
Sora Club;Sora;Martn;0
Santa Margarida de Montbui Club;Santa Margarida de Montbui;Cristian;3;Manolito;Albert;Juanito
Vilobí del Penedès Club;Vilobí del Penedès;Albert;0
Torrelavit Club;Torrelavit;Manolito;0
Tavertet Club;Tavertet;Garcia;1;Albert
Argençola Club;Argençola;Manolito;0
Tagamanent Club;Tagamanent;Carles;3;Cristian;Manolito;Mario
Olèrdola Club;Olèrdola;Garcia;3;Manolito;Pedrito;Juanito
Castellgalí Club;Castellgalí;Garcia;1;Mario
Rupit i Pruit Club;Rupit i Pruit;Mario;1;Josep
Castellar del Vallès Club;Castellar del Vallès;Albert;1;Juanito
Carme Club;Carme;Jan;0
Talamanca Club;Talamanca;Juanito;1;Cristian
Vic Club;Vic;Pepe;1;Morata
Figaró-Montmany Club;Figaró-Montmany;Juanito;3;Joselito;Albert;Pedrito
Parets del Vallès Club;Parets del Vallès;Albert;2;Morata;Joselito
Castellví de Rosanes Club;Castellví de Rosanes;Garcia;3;Carles;Ricard;Cristian
Santa Maria de Merlès Club;Santa Maria de Merlès;Mario;3;Morata;Cristian;Joselito
Súria Club;Súria;Martn;1;Josep
Llinars del Vallès Club;Llinars del Vallès;Albert;0
Centelles Club;Centelles;Joselito;2;Cristian;Jan
Santpedor Club;Santpedor;Cristian;3;Morata;Albert;Martin
La Torre de Claramunt Club;La Torre de Claramunt;Carles;1;Mario
Torrelles de Llobregat Club;Torrelles de Llobregat;Garcia;2;Juanito;Albert
Perafita Club;Perafita;Martn;2;Pepe;Carles
Viladecavalls Club;Viladecavalls;Antoni;0
Sant Vicenç dels Horts Club;Sant Vicenç dels Horts;Albert;3;Cristian;Josep;Juanito
Els Hostalets de Pierola Club;Els Hostalets de Pierola;Martn;2;Pepe;Antoni
Torrelles de Foix Club;Torrelles de Foix;Antoni;0
Prats de Lluçanès Club;Prats de Lluçanès;Antoni;0
Sant Andreu de la Barca Club;Sant Andreu de la Barca;Morata;2;Carles;Antoni
Olvan Club;Olvan;Antoni;2;Garcia;Manolito
Sant Cugat del Vallès Club;Sant Cugat del Vallès;Mario;3;Martin;Garcia;Albert
Olost Club;Olost;Manolito;1;Albert
Vilassar de Mar Club;Vilassar de Mar;Mario;3;Jan;Ricard;Pepe
Mataró Club;Mataró;Jan;2;Pedrito;Antoni
Pallejà Club;Pallejà;Mario;3;Ricard;Joselito;Jan
Avià Club;Avià;Ricard;1;Antoni
Copons Club;Copons;Cristian;2;Pepe;Juanito
L\'Estany Club;L\'Estany;Mario;2;Carles;Martin
La Pobla de Lillet Club;La Pobla de Lillet;Juanito;0
Piera Club;Piera;Ricard;0
Bigues i Riells Club;Bigues i Riells;Garcia;1;Pepe
Sant Pere Sallavinera Club;Sant Pere Sallavinera;Pepe;2;Cristian;Antoni
Sant Esteve de Palautordera Club;Sant Esteve de Palautordera;Juanito;2;Martin;Ricard
Sant Iscle de Vallalta Club;Sant Iscle de Vallalta;Cristian;1;Morata
Aiguafreda Club;Aiguafreda;Manolito;1;Ricard
Sant Cebrià de Vallalta Club;Sant Cebrià de Vallalta;Carles;3;Jan;Carles;Juanito
Sant Jaume de Frontanyà Club;Sant Jaume de Frontanyà;Manolito;0
Berga Club;Berga;Martn;0
Cabrils Club;Cabrils;Jan;1;Pedrito
Gurb Club;Gurb;Martn;3;Cristian;Juanito;Pedrito
La Roca del Vallès Club;La Roca del Vallès;Mario;3;Jan;Jan;Garcia
Campins Club;Campins;Jan;3;Garcia;Joselito;Jan
Esparreguera Club;Esparreguera;Manolito;2;Josep;Manolito
Santa Eulàlia de Riuprimer Club;Santa Eulàlia de Riuprimer;Mario;1;Ricard
Rubí Club;Rubí;Pedrito;3;Ricard;Carles;Albert
Sant Quintí de Mediona Club;Sant Quintí de Mediona;Jan;3;Martin;Cristian;Ricard
Fonollosa Club;Fonollosa;Joselito;0
Sant Llorenç d\'Hortons Club;Sant Llorenç d\'Hortons;Antoni;1;Garcia
Sant Quirze Safaja Club;Sant Quirze Safaja;Jan;1;Martin
Sant Feliu Sasserra Club;Sant Feliu Sasserra;Juanito;1;Pedrito
Barberà del Vallès Club;Barberà del Vallès;Albert;1;Pedrito
Cànoves i Samalús Club;Cànoves i Samalús;Josep;3;Pepe;Ricard;Morata
Mollet del Vallès Club;Mollet del Vallès;Josep;1;Manolito
Gironella Club;Gironella;Morata;1;Garcia
Monistrol de Montserrat Club;Monistrol de Montserrat;Josep;1;Pepe
Martorell Club;Martorell;Manolito;3;Carles;Pedrito;Manolito
Montornès del Vallès Club;Montornès del Vallès;Pedrito;3;Jan;Pepe;Garcia
Sant Salvador de Guardiola Club;Sant Salvador de Guardiola;Mario;3;Martin;Mario;Martin
Cubelles Club;Cubelles;Joselito;2;Juanito;Ricard
Santa Fe del Penedès Club;Santa Fe del Penedès;Albert;0
Masquefa Club;Masquefa;Josep;3;Pedrito;Carles;Garcia
Cornellà de Llobregat Club;Cornellà de Llobregat;Joselito;2;Martin;Manolito
La Llagosta Club;La Llagosta;Jan;3;Ricard;Cristian;Joselito
Muntanyola Club;Muntanyola;Ricard;1;Manolito
Jorba Club;Jorba;Josep;3;Mario;Juanito;Garcia
Montclar Club;Montclar;Cristian;3;Jan;Garcia;Jan
Igualada Club;Igualada;Albert;2;Albert;Manolito
Santa Coloma de Gramenet Club;Santa Coloma de Gramenet;Pepe;1;Mario
Sant Martí d\'Albars Club;Sant Martí d\'Albars;Carles;3;Joselito;Manolito;Juanito
Sant Quirze de Besora Club;Sant Quirze de Besora;Martn;3;Garcia;Joselito;Mario
Santa Maria de Besora Club;Santa Maria de Besora;Juanito;0
L\'Espunyola Club;L\'Espunyola;Manolito;0
Santa Cecília de Voltregà Club;Santa Cecília de Voltregà;Morata;2;Garcia;Garcia
Gaià Club;Gaià;Garcia;3;Cristian;Josep;Manolito
La Garriga Club;La Garriga;Jan;0
Fígols Club;Fígols;Martn;2;Garcia;Ricard
